Divergence Index — divergence • rsegregation
…
#> Loading required package: dplyr
#> 
#> Attaching package: ‘dplyr’
#> The following objects are masked from ‘package:stats’:
#> 
#>     filter, lag
#> The following objects are masked from ‘package:base’:
#> 
#>     intersect, setdiff, setequal, union
mutate(bay_race, divergence_score = divergence(white, hispanic,
  asian, black, all_other))

#> Warning: Population parameter not set; assuming equal populations.
#> # A tibble: 1,588 x 9
#>    fips     total_pop hispanic white  black  asian all_other county             
#>    <chr>        <dbl>    <dbl> <dbl>  <dbl>  <dbl>     <dbl> <chr>              
#>  1 0600140…      2937   0.0398 0.708 0.0477 0.155     0.0497 Alameda County, Ca…
#>  2 0600140…      1974   0.0765 0.783 0.0157 0.0740    0.0507 Alameda County, Ca…
#>  3 0600140…      4865   0.0820 0.669 0.105  0.0861    0.0573 Alameda County, Ca…
#>  4 0600140…      3703   0.0897 0.655 0.121  0.0729    0.0618 Alameda County, Ca…
#>  5 0600140…      3517   0.0967 0.506 0.265  0.0591    0.0734 Alameda County, Ca…
#>  6 0600140…      1571   0.0802 0.427 0.391  0.0509    0.0503 Alameda County, Ca…
#>  7 0600140…      4206   0.104  0.295 0.492  0.0592    0.0502 Alameda County, Ca…
#>  8 0600140…      3594   0.102  0.316 0.407  0.119     0.0556 Alameda County, Ca…
#>  9 0600140…      2302   0.133  0.310 0.437  0.0556    0.0647 Alameda County, Ca…
#> 10 0600140…      5678   0.142  0.223 0.502  0.0736    0.0594 Alameda County, Ca…
#> # … with 1,578 more rows, and 1 more variable: divergence_score <dbl>

# divergence alsow works with percentages as long as you have
# population totals by observation
bay_race %>%
  mutate_at(vars(hispanic:all_other), list(~(./total_pop))) %>%
  mutate(divergence_score = divergence(white, hispanic, asian,
  black, all_other, weights = total_pop))

#> Warning: parameter `weights` is deprecated, use `population`
#> # A tibble: 1,588 x 9
#>    fips    total_pop  hispanic    white    black   asian all_other county       
#>    <chr>       <dbl>     <dbl>    <dbl>    <dbl>   <dbl>     <dbl> <chr>        
#>  1 060014…      2937 0.0000136  2.41e-4  1.62e-5 5.29e-5 0.0000169 Alameda Coun…
#>  2 060014…      1974 0.0000388  3.97e-4  7.96e-6 3.75e-5 0.0000257 Alameda Coun…
#>  3 060014…      4865 0.0000169  1.38e-4  2.16e-5 1.77e-5 0.0000118 Alameda Coun…
#>  4 060014…      3703 0.0000242  1.77e-4  3.27e-5 1.97e-5 0.0000167 Alameda Coun…
#>  5 060014…      3517 0.0000275  1.44e-4  7.54e-5 1.68e-5 0.0000209 Alameda Coun…
#>  6 060014…      1571 0.0000511  2.72e-4  2.49e-4 3.24e-5 0.0000320 Alameda Coun…
#>  7 060014…      4206 0.0000248  7.00e-5  1.17e-4 1.41e-5 0.0000119 Alameda Coun…
#>  8 060014…      3594 0.0000284  8.79e-5  1.13e-4 3.32e-5 0.0000155 Alameda Coun…
#>  9 060014…      2302 0.0000579  1.35e-4  1.90e-4 2.42e-5 0.0000281 Alameda Coun…
#> 10 060014…      5678 0.0000250  3.94e-5  8.83e-5 1.30e-5 0.0000105 Alameda Coun…
#> # … with 1,578 more rows, and 1 more variable: divergence_score <dbl>
…
